LDC Example
…
df_12517 <- read_delim("RawData/SWQM-12517-P31699.txt", 
    "|", escape_double = FALSE, col_types = cols(Segment = col_character(), 
        `Station ID` = col_character(), `Parameter Code` = col_character(), 
        `End Date` = col_date(format = "%m/%d/%Y"), 
        `End Time` = col_skip(), `End Depth` = col_skip(), 
        `Start Date` = col_skip(), `Start Time` = col_skip(), 
        `Start Depth` = col_skip(), `Composite Category` = col_skip(), 
        `Composite Type` = col_skip(), `Submitting Entity` = col_skip(), 
        `Collecting Entity` = col_skip(), 
        `Monitoring Type` = col_skip(), Comments = col_skip()), 
    trim_ws = TRUE)
df_12517 <- clean_names(df_12517)
df_12517

## # A tibble: 72 x 9
##    rfa_sample_set_id_t… segment station_id station_description    parameter_code
##    <chr>                <chr>   <chr>      <chr>                  <chr>         
##  1 R212870              1502    12517      TRES PALACIOS CREEK A… 31699         
##  2 R216644              1502    12517      TRES PALACIOS CREEK A… 31699         
##  3 R218189              1502    12517      TRES PALACIOS CREEK A… 31699         
##  4 1444077              1502    12517      TRES PALACIOS CREEK A… 31699         
##  5 1478385              1502    12517      TRES PALACIOS CREEK A… 31699         
##  6 1643855              1502    12517      TRES PALACIOS CREEK A… 31699         
##  7 WR1104N              1502    12517      TRES PALACIOS CREEK A… 31699         
##  8 R194025              1502    12517      TRES PALACIOS CREEK A… 31699         
##  9 1342329              1502    12517      TRES PALACIOS CREEK A… 31699         
## 10 10035889             1502    12517      TRES PALACIOS CREEK A… 31699         
## # … with 62 more rows, and 4 more variables: parameter_description <chr>,
## #   greater_than_less_than <chr>, value <dbl>, end_date <date>

This code chunk will download the streamflow data. I usually write this in a sepearte script so I only have to run it one time and write the output file to the raw data folder. The main script will read the data from the raw data folder instead of trying to download the data every single time we run the script.

# download mean daily streamflow and write to csv
Q_df <- readNWISdv(siteNumbers = "08162600",
           startDate = "2000-01-01",
           endDate = "2020-12-31",
           parameterCd = "00060",
           statCd = "00003")
Q_df <- renameNWISColumns(Q_df)
write_csv(Q_df,
          "RawData/meandailyQ_08162600.csv")
as_tibble(Q_df)

## # A tibble: 7,671 x 5
##    agency_cd site_no  Date        Flow Flow_cd
##    <chr>     <chr>    <date>     <dbl> <chr>  
##  1 USGS      08162600 2000-01-01  0.84 A      
##  2 USGS      08162600 2000-01-02  3    A      
##  3 USGS      08162600 2000-01-03  3.4  A      
##  4 USGS      08162600 2000-01-04  2.6  A      
##  5 USGS      08162600 2000-01-05  1.6  A      
##  6 USGS      08162600 2000-01-06  3.2  A      
##  7 USGS      08162600 2000-01-07 11    A      
##  8 USGS      08162600 2000-01-08 17    A      
##  9 USGS      08162600 2000-01-09 22    A      
## 10 USGS      08162600 2000-01-10 18    A      
## # … with 7,661 more rows
…
Flow Duration Curve

Now we make a flow duration curve by calculating the probablity that a flow on any given day will be exceeded.

Q_df <- Q_df %>%
  select(Date, Flow) %>%
  mutate(FlowExceedance = 1/(length(Flow)/rank(-Flow))) ## this calculates the prob of flow being exceeded

as_tibble(Q_df)

## # A tibble: 7,671 x 3
##    Date        Flow FlowExceedance
##    <date>     <dbl>          <dbl>
##  1 2000-01-01  0.84          0.999
##  2 2000-01-02  3             0.993
##  3 2000-01-03  3.4           0.990
##  4 2000-01-04  2.6           0.994
##  5 2000-01-05  1.6           0.998
##  6 2000-01-06  3.2           0.991
##  7 2000-01-07 11             0.811
##  8 2000-01-08 17             0.580
##  9 2000-01-09 22             0.443
## 10 2000-01-10 18             0.545
## # … with 7,661 more rows
…
Now we want to overlay the measured bacteria data as loads on the LDC. So we pair the bacteria data by date to flow, then convert the concentration to a daily load and add it to the plot.

Q_df %>%
  left_join(df_12517 %>%
              select(end_date, value),
            by = c("Date" = "end_date")) %>%
  mutate(MeasuredLoad = (value/100) * Flow * 28316.8 * 86400) -> Q_df

as_tibble(Q_df)

## # A tibble: 7,671 x 6
##    Date        Flow FlowExceedance          LDC value MeasuredLoad
##    <date>     <dbl>          <dbl>        <dbl> <dbl>        <dbl>
##  1 2000-01-01  0.84          0.999  2589451297.    NA           NA
##  2 2000-01-02  3             0.993  9248040346.    NA           NA
##  3 2000-01-03  3.4           0.990 10481112392.    NA           NA
##  4 2000-01-04  2.6           0.994  8014968300.    NA           NA
##  5 2000-01-05  1.6           0.998  4932288184.    NA           NA
##  6 2000-01-06  3.2           0.991  9864576369.    NA           NA
##  7 2000-01-07 11             0.811 33909481267.    NA           NA
##  8 2000-01-08 17             0.580 52405561958.    NA           NA
##  9 2000-01-09 22             0.443 67818962534.    NA           NA
## 10 2000-01-10 18             0.545 55488242074.    NA           NA
## # … with 7,661 more rows
…
